{"current_page":1,"total_pages":1214,"total_results":12133,"products":[{"id":1164,"title":"Nike Men Blue T20 Indian Cricket Jersey","price":1595,"description":"<p><strong>Composition</strong><br />Blue cotton jersey with a ribbed V-neck and spread collar, short sleeves, tri-colour paneling from the sleeve to the hem, orange panel on the back neck and branding on the front<br /><br />Warranty for manufacturing defects: 6 months (not valid on products with more than 20% discount)<br /><strong><br />Fit</strong><br />Comfort</p>","image":"http://assets.myntassets.com/v1/images/style/properties/Nike-Men-Blue-T20-Indian-Cricket-Jersey_12975d4d66eefad43ba02dea5787cce4_images.jpg","brandName":"Nike","season":"Winter","usage":"Sports","gender":"Men","articleNumber":"Nike Sahara Jersey","baseColour":"Blue","year":"2015","articleType":"Tshirts","displayCategories":"Sports Wear","category":"Apparel - Topwear","rating":{"rate":4.3,"count":502},"__v":0},{"id":1622,"title":"Reebok Navy Knit Rib Jacket","price":2499,"description":"<span>Navy blue jacket, long sleeves, mesh lining,stand collar,a full zip closure,red lining running down&nbsp;cuffs and hem, two slant&nbsp;front pockets.<br></span>","image":"http://assets.myntassets.com/v1/images/style/properties/d545d737b2b2dcf7cee2145263e7c850_images.jpg","brandName":"Reebok","season":"Summer","usage":"Casual","gender":"Men","articleNumber":"I09832","baseColour":"Navy Blue","year":"2016","articleType":"Jackets","displayCategories":"Sports Wear,Sale,Winterwear","category":"Apparel - Topwear","rating":{"rate":4.9,"count":312},"__v":0},{"id":1727,"title":"Newfeel Unisex Black Lightweight Shoes","price":599,"description":"<p style=\"text-align: justify;\">Bring back the joy of walking with these newfeel shoes. These shoes come with cool urban styling and a comfortable structure. Wear it for everyday walks or as a daily wear for your day-to-day chores around your block.<br /><br /><strong>Upper</strong></p>\r<br/><ul>\r<br/><li>Soft upper made of mesh for enhanced ventilation for the feet </li>\r<br/><li>Synthetic leather overlays for added support to the upper </li>\r<br/><li>Reinforced overlay at backfoot and around toe box for enhanced foot support and durability</li>\r<br/><li>Lightly padded collar and tongue for added comfort and snug Fit </li>\r<br/><li>Lace-ups for snug fit and to lock the foot in place</li>\r<br/><li>Synthetic twill laces for durability</li>\r<br/><li>Stitch detailing for enhanced durability and subtle styling</li>\r<br/></ul>\r<br/><p style=\"text-align: justify;\"><strong>Midsole</strong></p>\r<br/><ul>\r<br/><li>EVA midsole for soft cushioning and shock absorption, protecting the feet from impact</li>\r<br/><li>Removable footbed to accommodate an orthotic</li>\r<br/></ul>\r<br/><p style=\"text-align: justify;\"><strong>Outsole</strong></p>\r<br/><ul>\r<br/><li>Flex grooves in multi-directional pattern for natural movement of the foot with utmost grip and stability</li>\r<br/><li>EssenSole insole with polyurethane insert to provide midfoot stability for maximum support on all terrains</li>\r<br/></ul>\r<br/><p style=\"text-align: justify;\"><strong>Wash care</strong><br />Wipe surface with soft, clean, damp cloth<br />Do not machine wash</p>","image":"http://assets.myntassets.com/v1/images/style/properties/b4cceb82a693f46ac163e0c8fce3a387_images.jpg","brandName":"Newfeel","season":"Winter","usage":"Casual","gender":"Unisex","articleNumber":"1220666","baseColour":"Black","year":"2015","articleType":"Casual Shoes","displayCategories":"Footwear","category":"Footwear - Shoes","rating":{"rate":3.8,"count":99},"__v":0},{"id":2188,"title":"ADIDAS Women Stripe Black Swimming Cap","price":699,"description":"<p><strong>Composition  </strong>                                                                                                                                                                                                                                                                                                                                                                                                                                                                                                                                     <br />Silicon latex swimming cap<br /><br /><strong>Wash Care</strong><br />Hand wash with water at room temperature<br /><br /><strong>Fitting </strong><br />Snug Fit<br />                                                                                                                                                                                                                                                                                                                                                                                                                                                                                                                                                                                                                                                                                                                                                                                                                                                                                                                                                                                                                                               <br />This adidas swimming cap is made out of non-absorbent material to keep swimmers hair chlorine free and relatively dry. This swimming cap is ideal for swimmers with long or short hair.</p>","image":"http://assets.myntassets.com/v1/images/style/properties/578e4ab92efcec9a6f64e868b0fa9dec_images.jpg","brandName":"ADIDAS","season":"Summer","usage":"Sports","gender":"Women","articleNumber":"802310","baseColour":"Black","year":"2016","articleType":"Swimwear","displayCategories":"Sports Wear","category":"Apparel - Apparel Set","rating":{"rate":4.4,"count":604},"__v":0},{"id":2367,"title":"Red Tape Men's Brown Semi Formal Shoe","price":2195,"description":"<p style=\"text-align: justify;\"><strong>Composition:</strong><br />Leather<br /><br /><strong>shoe care:</strong><br />Use a branded shoe polish to keep your leather footwear clean and shiny<br /><br /><strong>Fitting:</strong><br />Regular<br /><br />These beautiful brown leather shoes from red tape with the pointed toe box and clean sleek design is perfect for office and other occasions.</p>","image":"http://assets.myntassets.com/v1/images/style/properties/be7ead9f669730b458d200b94a3c2ee3_images.jpg","brandName":"Red Tape","season":"Winter","usage":"Formal","gender":"Men","articleNumber":"RTS 400","baseColour":"Brown","year":"2018","articleType":"Formal Shoes","displayCategories":"Footwear","category":"Footwear - Shoes","rating":{"rate":4.5,"count":174},"__v":0},{"id":2368,"title":"Red Tape Brown Casual Men's Shoe","price":2395,"description":"<p style=\"text-align: justify;\">Stylish and uber cool, these semi-formal boots with a pointed toe design from red tape add an extra bounce to your step. With a high quality leather upper and no laces, they are easy to wear and take off. They look great with jeans, chinos or even your formal trousers. Easy to look spectacular, classy and wow! <br /><br /><strong>Upper</strong><br />Leather upper for added durability and style <br />Pointed toe design for a more stylish look <br />Elastic gores on either side of the midfoot for a more versatile &middot;  &middot;  Fit <br />Leather haul loop to hang &middot;  &middot;  shoes from a &middot;  &middot;  backpack<br /><strong><br />Midsole</strong><br />PU midsole for lightweight comfort and support <br />Leather inner lining and footbed with perforations&nbsp;   for absorbing moisture and keeping the feet dry, offering all-day comfort<br /><strong><br />Outsole</strong><br />Lightweight rubber outsole with a wooden finish <br />Raised heel for ergonomic comfort and style<br /><strong><br />shoe care</strong><br />Wipe leather surface with dry, clean cloth to remove dust<br />Use a branded leather conditioner to maintain shine<br />Do not store in direct sunlight</p>","image":"http://assets.myntassets.com/v1/images/style/properties/dd19859d1961d3c5a5607f7e75caefd5_images.jpg","brandName":"Red Tape","season":"Winter","usage":"Casual","gender":"Men","articleNumber":"RTS5082","baseColour":"Brown","year":"2018","articleType":"Casual Shoes","displayCategories":"Footwear","category":"Footwear - Shoes","rating":{"rate":4.3,"count":282},"__v":0},{"id":2369,"title":"Red Tape Casual Brown Men's Shoe","price":2295,"description":"<p style=\"text-align: justify;\"><strong>Composition</strong>:<br />Leather<br /><strong><br />shoe care:</strong><br />Use a branded shoe polish to keep your leather footwear clean and shiny<br /><br /><strong>Fitting:</strong><br />Regular<br /><br />These beautiful brown leather shoes from red tape are perfect when teamed up with casual wear and with the narrow toe box and clean look, these are perfect when teamed up with casuals for Friday dressing or while going out with friends. The out sole with the asymmetrical ridge patter gives excellent grip.</p>","image":"http://assets.myntassets.com/v1/images/style/properties/90bda8b1f14cff341a0925bf78270767_images.jpg","brandName":"Red Tape","season":"Winter","usage":"Casual","gender":"Men","articleNumber":"RTS4532","baseColour":"Brown","year":"2018","articleType":"Casual Shoes","displayCategories":"Casual Shoes,Footwear","category":"Footwear - Shoes","rating":{"rate":3.5,"count":583},"__v":0},{"id":2370,"title":"Red Tape Men's Semi Black Formal Shoe","price":2295,"description":"-","image":"http://assets.myntassets.com/v1/images/style/properties/Red-Tape-Mens-Semi-Black-Formal-Shoe_8d0537ad286211a87634cc2ea8cde383_images.jpg","brandName":"Red Tape","season":"Winter","usage":"Formal","gender":"Men","articleNumber":"RTS4991","baseColour":"Black","year":"2018","articleType":"Formal Shoes","displayCategories":"Footwear","category":"Footwear - Shoes","rating":{"rate":4.5,"count":329},"__v":0},{"id":2371,"title":"Red Tape Semi Casual Brown Shoe","price":2295,"description":"<p style=\"text-align: justify;\"><strong>Composition:</strong><br />Leather<br /><br /><strong>shoe care:</strong><br />Use a branded shoe polish to keep your leather footwear clean and shiny<br /><br /><strong>Fitting:</strong><br />Regular<br /><br />These beautiful brown leather shoes from red tape are perfect when teamed up with casual wear and with the narrow toe box and clean look, these are perfect when teamed up with casuals for Friday dressing or while going out with friends. The convenient design allows for easy insertion and removal of the feet.</p>","image":"http://assets.myntassets.com/v1/images/style/properties/8a046e41c27ea7cf2536282fb9712556_images.jpg","brandName":"Red Tape","season":"Winter","usage":"Casual","gender":"Men","articleNumber":"RTS4992","baseColour":"Brown","year":"2018","articleType":"Casual Shoes","displayCategories":"Footwear","category":"Footwear - Shoes","rating":{"rate":3.1,"count":349},"__v":0},{"id":2372,"title":"Red Tape Formal Black Men's Shoe","price":2195,"description":"<p style=\"text-align: justify;\"><strong>Composition:</strong><br />Leather<br /><br /><strong>shoe care:</strong><br />Use a branded shoe polish to keep your leather footwear clean and shiny.<br /><br /><strong>Fitting:</strong><br />Regular.<br /><br />These beautiful brown leather shoes from red tape go well with all formals ,these come with&nbsp;   tapered toe box, glossy brown leather and lace ups. These are the perfect accompaniment for all special occasions and office meetings, these shoes give you a well groomed edge.</p>","image":"http://assets.myntassets.com/v1/images/style/properties/6f393b28600dfff3d63d1c02e6056137_images.jpg","brandName":"Red Tape","season":"Winter","usage":"Formal","gender":"Men","articleNumber":"RTS5051","baseColour":"Black","year":"2018","articleType":"Formal Shoes","displayCategories":"Footwear","category":"Footwear - Shoes","rating":{"rate":2.1,"count":232},"__v":0}]}
